\relax 
\@writefile{toc}{\contentsline {section}{\numberline {1}Exponential model of Calcium activity}{1}}
\newlabel{eq:post_fact}{{6}{1}}
\newlabel{eq:s0}{{8}{1}}
\newlabel{eq:s1}{{11}{2}}
\newlabel{eq:ZS}{{12}{2}}
\newlabel{eq:ccond}{{15}{2}}
\newlabel{eq:bcond}{{16}{2}}
\@writefile{toc}{\contentsline {section}{\numberline {2}Asymptotics of $Z_S$}{2}}
\@writefile{toc}{\contentsline {section}{\numberline {3}Conditional distribution of parameters given latent trajectories}{3}}
